Recitation/2/Lab_2/simulation/qsim/RCA.msim.vcd
$comment
	File created using the following command:
		vcd file RCA.msim.vcd -direction
$end
$date
	Tue Jun 06 21:27:31 2023
$end
$version
	ModelSim Version 10.5b
$end
$timescale
	1ps
$end

$scope module RCA_vlg_vec_tst $end
$var reg 1 ! cin $end
$var reg 4 " in1 [3:0] $end
$var reg 4 # in2 [3:0] $end
$var wire 1 $ cout $end
$var wire 1 % sum [3] $end
$var wire 1 & sum [2] $end
$var wire 1 ' sum [1] $end
$var wire 1 ( sum [0] $end

$scope module i1 $end
$var wire 1 ) gnd $end
$var wire 1 * vcc $end
$var wire 1 + unknown $end
$var tri1 1 , devclrn $end
$var tri1 1 - devpor $end
$var tri1 1 . devoe $end
$var wire 1 / sum[0]~output_o $end
$var wire 1 0 sum[1]~output_o $end
$var wire 1 1 sum[2]~output_o $end
$var wire 1 2 sum[3]~output_o $end
$var wire 1 3 cout~output_o $end
$var wire 1 4 in2[0]~input_o $end
$var wire 1 5 in1[0]~input_o $end
$var wire 1 6 cin~input_o $end
$var wire 1 7 adder0|xor_sum~0_combout $end
$var wire 1 8 in2[1]~input_o $end
$var wire 1 9 in1[1]~input_o $end
$var wire 1 : adder0|or_cout~0_combout $end
$var wire 1 ; adder1|xor_sum~combout $end
$var wire 1 < in2[2]~input_o $end
$var wire 1 = adder1|or_cout~0_combout $end
$var wire 1 > in1[2]~input_o $end
$var wire 1 ? adder2|xor_sum~combout $end
$var wire 1 @ in1[3]~input_o $end
$var wire 1 A in2[3]~input_o $end
$var wire 1 B adder2|or_cout~0_combout $end
$var wire 1 C adder3|xor_sum~combout $end
$var wire 1 D adder3|or_cout~0_combout $end
$upscope $end
$upscope $end
$enddefinitions $end
#0
$dumpvars
0!
b0 "
b0 #
0$
0(
0'
0&
0%
0)
1*
x+
1,
1-
1.
0/
00
01
02
03
04
05
06
07
08
09
0:
0;
0<
0=
0>
0?
0@
0A
0B
0C
0D
$end
#5000
b1 "
b1 #
14
15
1:
1;
10
1'
#10000
b11 "
b11 #
b10 "
b10 #
04
18
05
19
0:
1=
0;
1?
11
00
0'
1&
#15000
b11 "
b11 #
14
15
1:
1;
10
1'
#20000
b111 "
b111 #
b101 "
b101 #
b100 "
b100 #
04
08
1<
05
09
1>
0:
0=
1B
0;
0?
1C
12
01
00
0'
0&
1%
#25000
b101 "
b101 #
14
15
1:
1;
10
1'
#30000
b111 "
b111 #
b110 "
b110 #
04
18
05
19
0:
1=
0;
1?
11
00
0'
1&
#35000
b111 "
b111 #
14
15
1:
1;
10
1'
#40000
b1111 "
b1111 #
b1011 "
b1011 #
b1001 "
b1001 #
b1000 "
b1000 #
04
08
0<
1A
05
09
0>
1@
0:
0=
0B
1D
13
1$
0;
0?
0C
02
01
00
0'
0&
0%
#45000
b1001 "
b1001 #
14
15
1:
1;
10
1'
#50000
b1011 "
b1011 #
b1010 "
b1010 #
04
18
05
19
0:
1=
0;
1?
11
00
0'
1&
#55000
b1011 "
b1011 #
14
15
1:
1;
10
1'
#60000
b1111 "
b1111 #
b1101 "
b1101 #
b1100 "
b1100 #
04
08
1<
05
09
1>
0:
0=
1B
0;
0?
1C
12
01
00
0'
0&
1%
#65000
b1101 "
b1101 #
14
15
1:
1;
10
1'
#70000
b1111 "
b1111 #
b1110 "
b1110 #
04
18
05
19
0:
1=
0;
1?
11
00
0'
1&
#75000
b1111 "
b1111 #
14
15
1:
1;
10
1'
#80000
1!
b111 "
b111 #
b11 "
b11 #
b1 "
b1 #
b0 "
b0 #
16
04
08
0<
0A
05
09
0>
0@
0:
0=
0B
17
0D
03
1/
1(
0$
0;
0?
0C
02
01
00
0'
0&
0%
#85000
b1 "
b1 #
14
15
1:
1;
10
1'
#90000
b11 "
b11 #
b10 "
b10 #
04
18
05
19
0:
1=
0;
1?
11
00
0'
1&
#95000
b11 "
b11 #
14
15
1:
1;
10
1'
#100000
b111 "
b111 #
b101 "
b101 #
b100 "
b100 #
04
08
1<
05
09
1>
0:
0=
1B
0;
0?
1C
12
01
00
0'
0&
1%
#105000
b101 "
b101 #
14
15
1:
1;
10
1'
#110000
b111 "
b111 #
b110 "
b110 #
04
18
05
19
0:
1=
0;
1?
11
00
0'
1&
#115000
b111 "
b111 #
14
15
1:
1;
10
1'
#120000
b1111 "
b1111 #
b1011 "
b1011 #
b1001 "
b1001 #
b1000 "
b1000 #
04
08
0<
1A
05
09
0>
1@
0:
0=
0B
1D
13
1$
0;
0?
0C
02
01
00
0'
0&
0%
#125000
b1001 "
b1001 #
14
15
1:
1;
10
1'
#130000
b1011 "
b1011 #
b1010 "
b1010 #
04
18
05
19
0:
1=
0;
1?
11
00
0'
1&
#135000
b1011 "
b1011 #
14
15
1:
1;
10
1'
#140000
b1111 "
b1111 #
b1101 "
b1101 #
b1100 "
b1100 #
04
08
1<
05
09
1>
0:
0=
1B
0;
0?
1C
12
01
00
0'
0&
1%
#145000
b1101 "
b1101 #
14
15
1:
1;
10
1'
#150000
b1111 "
b1111 #
b1110 "
b1110 #
04
18
05
19
0:
1=
0;
1?
11
00
0'
1&
#155000
b1111 "
b1111 #
14
15
1:
1;
10
1'
#160000
0!
b111 "
b111 #
b11 "
b11 #
b1 "
b1 #
b0 "
b0 #
06
04
08
0<
0A
05
09
0>
0@
0:
0=
0B
07
0D
03
0/
0(
0$
0;
0?
0C
02
01
00
0'
0&
0%
#165000
b1 "
b1 #
14
15
1:
1;
10
1'
#170000
b11 "
b11 #
b10 "
b10 #
04
18
05
19
0:
1=
0;
1?
11
00
0'
1&
#175000
b11 "
b11 #
14
15
1:
1;
10
1'
#180000
b111 "
b111 #
b101 "
b101 #
b100 "
b100 #
04
08
1<
05
09
1>
0:
0=
1B
0;
0?
1C
12
01
00
0'
0&
1%
#185000
b101 "
b101 #
14
15
1:
1;
10
1'
#190000
b111 "
b111 #
b110 "
b110 #
04
18
05
19
0:
1=
0;
1?
11
00
0'
1&
#195000
b111 "
b111 #
14
15
1:
1;
10
1'
#200000
b1111 "
b1111 #
b1011 "
b1011 #
b1001 "
b1001 #
b1000 "
b1000 #
04
08
0<
1A
05
09
0>
1@
0:
0=
0B
1D
13
1$
0;
0?
0C
02
01
00
0'
0&
0%
#205000
b1001 "
b1001 #
14
15
1:
1;
10
1'
#210000
b1011 "
b1011 #
b1010 "
b1010 #
04
18
05
19
0:
1=
0;
1?
11
00
0'
1&
#215000
b1011 "
b1011 #
14
15
1:
1;
10
1'
#220000
b1111 "
b1111 #
b1101 "
b1101 #
b1100 "
b1100 #
04
08
1<
05
09
1>
0:
0=
1B
0;
0?
1C
12
01
00
0'
0&
1%
#225000
b1101 "
b1101 #
14
15
1:
1;
10
1'
#230000
b1111 "
b1111 #
b1110 "
b1110 #
04
18
05
19
0:
1=
0;
1?
11
00
0'
1&
#235000
b1111 "
b1111 #
14
15
1:
1;
10
1'
#240000
b111 "
b111 #
b11 "
b11 #
b1 "
b1 #
b0 "
b0 #
04
08
0<
0A
05
09
0>
0@
0:
0=
0B
0D
03
0$
0;
0?
0C
02
01
00
0'
0&
0%
#245000
b1 "
b1 #
14
15
1:
1;
10
1'
#250000
b11 "
b11 #
b10 "
b10 #
04
18
05
19
0:
1=
0;
1?
11
00
0'
1&
#255000
b11 "
b11 #
14
15
1:
1;
10
1'
#260000
b111 "
b111 #
b101 "
b101 #
b100 "
b100 #
04
08
1<
05
09
1>
0:
0=
1B
0;
0?
1C
12
01
00
0'
0&
1%
#265000
b101 "
b101 #
14
15
1:
1;
10
1'
#270000
b111 "
b111 #
b110 "
b110 #
04
18
05
19
0:
1=
0;
1?
11
00
0'
1&
#275000
b111 "
b111 #
14
15
1:
1;
10
1'
#280000
b1111 "
b1111 #
b1011 "
b1011 #
b1001 "
b1001 #
b1000 "
b1000 #
04
08
0<
1A
05
09
0>
1@
0:
0=
0B
1D
13
1$
0;
0?
0C
02
01
00
0'
0&
0%
#285000
b1001 "
b1001 #
14
15
1:
1;
10
1'
#290000
b1011 "
b1011 #
b1010 "
b1010 #
04
18
05
19
0:
1=
0;
1?
11
00
0'
1&
#295000
b1011 "
b1011 #
14
15
1:
1;
10
1'
#300000
b1111 "
b1111 #
b1101 "
b1101 #
b1100 "
b1100 #
04
08
1<
05
09
1>
0:
0=
1B
0;
0?
1C
12
01
00
0'
0&
1%
#305000
b1101 "
b1101 #
14
15
1:
1;
10
1'
#310000
b1111 "
b1111 #
b1110 "
b1110 #
04
18
05
19
0:
1=
0;
1?
11
00
0'
1&
#315000
b1111 "
b1111 #
14
15
1:
1;
10
1'
#320000
b111 "
b111 #
b11 "
b11 #
b1 "
b1 #
b0 "
b0 #
04
08
0<
0A
05
09
0>
0@
0:
0=
0B
0D
03
0$
0;
0?
0C
02
01
00
0'
0&
0%
#325000
b1 "
b1 #
14
15
1:
1;
10
1'
#330000
b11 "
b11 #
b10 "
b10 #
04
18
05
19
0:
1=
0;
1?
11
00
0'
1&
#335000
b11 "
b11 #
14
15
1:
1;
10
1'
#340000
b111 "
b111 #
b101 "
b101 #
b100 "
b100 #
04
08
1<
05
09
1>
0:
0=
1B
0;
0?
1C
12
01
00
0'
0&
1%
#345000
b101 "
b101 #
14
15
1:
1;
10
1'
#350000
b111 "
b111 #
b110 "
b110 #
04
18
05
19
0:
1=
0;
1?
11
00
0'
1&
#355000
b111 "
b111 #
14
15
1:
1;
10
1'
#360000
b1111 "
b1111 #
b1011 "
b1011 #
b1001 "
b1001 #
b1000 "
b1000 #
04
08
0<
1A
05
09
0>
1@
0:
0=
0B
1D
13
1$
0;
0?
0C
02
01
00
0'
0&
0%
#365000
b1001 "
b1001 #
14
15
1:
1;
10
1'
#370000
b1011 "
b1011 #
b1010 "
b1010 #
04
18
05
19
0:
1=
0;
1?
11
00
0'
1&
#375000
b1011 "
b1011 #
14
15
1:
1;
10
1'
#380000
b1111 "
b1111 #
b1101 "
b1101 #
b1100 "
b1100 #
04
08
1<
05
09
1>
0:
0=
1B
0;
0?
1C
12
01
00
0'
0&
1%
#385000
b1101 "
b1101 #
14
15
1:
1;
10
1'
#390000
b1111 "
b1111 #
b1110 "
b1110 #
04
18
05
19
0:
1=
0;
1?
11
00
0'
1&
#395000
b1111 "
b1111 #
14
15
1:
1;
10
1'
#400000
b111 "
b111 #
b11 "
b11 #
b1 "
b1 #
b0 "
b0 #
04
08
0<
0A
05
09
0>
0@
0:
0=
0B
0D
03
0$
0;
0?
0C
02
01
00
0'
0&
0%
#405000
b1 "
b1 #
14
15
1:
1;
10
1'
#410000
b11 "
b11 #
b10 "
b10 #
04
18
05
19
0:
1=
0;
1?
11
00
0'
1&
#415000
b11 "
b11 #
14
15
1:
1;
10
1'
#420000
b111 "
b111 #
b101 "
b101 #
b100 "
b100 #
04
08
1<
05
09
1>
0:
0=
1B
0;
0?
1C
12
01
00
0'
0&
1%
#425000
b101 "
b101 #
14
15
1:
1;
10
1'
#430000
b111 "
b111 #
b110 "
b110 #
04
18
05
19
0:
1=
0;
1?
11
00
0'
1&
#435000
b111 "
b111 #
14
15
1:
1;
10
1'
#440000
b1111 "
b1111 #
b1011 "
b1011 #
b1001 "
b1001 #
b1000 "
b1000 #
04
08
0<
1A
05
09
0>
1@
0:
0=
0B
1D
13
1$
0;
0?
0C
02
01
00
0'
0&
0%
#445000
b1001 "
b1001 #
14
15
1:
1;
10
1'
#450000
b1011 "
b1011 #
b1010 "
b1010 #
04
18
05
19
0:
1=
0;
1?
11
00
0'
1&
#455000
b1011 "
b1011 #
14
15
1:
1;
10
1'
#460000
b1111 "
b1111 #
b1101 "
b1101 #
b1100 "
b1100 #
04
08
1<
05
09
1>
0:
0=
1B
0;
0?
1C
12
01
00
0'
0&
1%
#465000
b1101 "
b1101 #
14
15
1:
1;
10
1'
#470000
b1111 "
b1111 #
b1110 "
b1110 #
04
18
05
19
0:
1=
0;
1?
11
00
0'
1&
#475000
b1111 "
b1111 #
14
15
1:
1;
10
1'
#480000
b111 "
b111 #
b11 "
b11 #
b1 "
b1 #
b0 "
b0 #
04
08
0<
0A
05
09
0>
0@
0:
0=
0B
0D
03
0$
0;
0?
0C
02
01
00
0'
0&
0%
#485000
b1 "
b1 #
14
15
1:
1;
10
1'
#490000
b11 "
b11 #
b10 "
b10 #
04
18
05
19
0:
1=
0;
1?
11
00
0'
1&
#495000
b11 "
b11 #
14
15
1:
1;
10
1'
#500000
b111 "
b111 #
b101 "
b101 #
b100 "
b100 #
04
08
1<
05
09
1>
0:
0=
1B
0;
0?
1C
12
01
00
0'
0&
1%
#505000
b101 "
b101 #
14
15
1:
1;
10
1'
#510000
b111 "
b111 #
b110 "
b110 #
04
18
05
19
0:
1=
0;
1?
11
00
0'
1&
#515000
b111 "
b111 #
14
15
1:
1;
10
1'
#520000
b1111 "
b1111 #
b1011 "
b1011 #
b1001 "
b1001 #
b1000 "
b1000 #
04
08
0<
1A
05
09
0>
1@
0:
0=
0B
1D
13
1$
0;
0?
0C
02
01
00
0'
0&
0%
#525000
b1001 "
b1001 #
14
15
1:
1;
10
1'
#530000
b1011 "
b1011 #
b1010 "
b1010 #
04
18
05
19
0:
1=
0;
1?
11
00
0'
1&
#535000
b1011 "
b1011 #
14
15
1:
1;
10
1'
#540000
b1111 "
b1111 #
b1101 "
b1101 #
b1100 "
b1100 #
04
08
1<
05
09
1>
0:
0=
1B
0;
0?
1C
12
01
00
0'
0&
1%
#545000
b1101 "
b1101 #
14
15
1:
1;
10
1'
#550000
b1111 "
b1111 #
b1110 "
b1110 #
04
18
05
19
0:
1=
0;
1?
11
00
0'
1&
#555000
b1111 "
b1111 #
14
15
1:
1;
10
1'
#560000
b111 "
b111 #
b11 "
b11 #
b1 "
b1 #
b0 "
b0 #
04
08
0<
0A
05
09
0>
0@
0:
0=
0B
0D
03
0$
0;
0?
0C
02
01
00
0'
0&
0%
#565000
b1 "
b1 #
14
15
1:
1;
10
1'
#570000
b11 "
b11 #
b10 "
b10 #
04
18
05
19
0:
1=
0;
1?
11
00
0'
1&
#575000
b11 "
b11 #
14
15
1:
1;
10
1'
#580000
b111 "
b111 #
b101 "
b101 #
b100 "
b100 #
04
08
1<
05
09
1>
0:
0=
1B
0;
0?
1C
12
01
00
0'
0&
1%
#585000
b101 "
b101 #
14
15
1:
1;
10
1'
#590000
b111 "
b111 #
b110 "
b110 #
04
18
05
19
0:
1=
0;
1?
11
00
0'
1&
#595000
b111 "
b111 #
14
15
1:
1;
10
1'
#600000
b1111 "
b1111 #
b1011 "
b1011 #
b1001 "
b1001 #
b1000 "
b1000 #
04
08
0<
1A
05
09
0>
1@
0:
0=
0B
1D
13
1$
0;
0?
0C
02
01
00
0'
0&
0%
#605000
b1001 "
b1001 #
14
15
1:
1;
10
1'
#610000
b1011 "
b1011 #
b1010 "
b1010 #
04
18
05
19
0:
1=
0;
1?
11
00
0'
1&
#615000
b1011 "
b1011 #
14
15
1:
1;
10
1'
#620000
b1111 "
b1111 #
b1101 "
b1101 #
b1100 "
b1100 #
04
08
1<
05
09
1>
0:
0=
1B
0;
0?
1C
12
01
00
0'
0&
1%
#625000
b1101 "
b1101 #
14
15
1:
1;
10
1'
#630000
b1111 "
b1111 #
b1110 "
b1110 #
04
18
05
19
0:
1=
0;
1?
11
00
0'
1&
#635000
b1111 "
b1111 #
14
15
1:
1;
10
1'
#640000
b111 "
b111 #
b11 "
b11 #
b1 "
b1 #
b0 "
b0 #
04
08
0<
0A
05
09
0>
0@
0:
0=
0B
0D
03
0$
0;
0?
0C
02
01
00
0'
0&
0%
#645000
b1 "
b1 #
14
15
1:
1;
10
1'
#650000
b11 "
b11 #
b10 "
b10 #
04
18
05
19
0:
1=
0;
1?
11
00
0'
1&
#655000
b11 "
b11 #
14
15
1:
1;
10
1'
#660000
b111 "
b111 #
b101 "
b101 #
b100 "
b100 #
04
08
1<
05
09
1>
0:
0=
1B
0;
0?
1C
12
01
00
0'
0&
1%
#665000
b101 "
b101 #
14
15
1:
1;
10
1'
#670000
b111 "
b111 #
b110 "
b110 #
04
18
05
19
0:
1=
0;
1?
11
00
0'
1&
#675000
b111 "
b111 #
14
15
1:
1;
10
1'
#680000
b1111 "
b1111 #
b1011 "
b1011 #
b1001 "
b1001 #
b1000 "
b1000 #
04
08
0<
1A
05
09
0>
1@
0:
0=
0B
1D
13
1$
0;
0?
0C
02
01
00
0'
0&
0%
#685000
b1001 "
b1001 #
14
15
1:
1;
10
1'
#690000
b1011 "
b1011 #
b1010 "
b1010 #
04
18
05
19
0:
1=
0;
1?
11
00
0'
1&
#695000
b1011 "
b1011 #
14
15
1:
1;
10
1'
#700000
b1111 "
b1111 #
b1101 "
b1101 #
b1100 "
b1100 #
04
08
1<
05
09
1>
0:
0=
1B
0;
0?
1C
12
01
00
0'
0&
1%
#705000
b1101 "
b1101 #
14
15
1:
1;
10
1'
#710000
b1111 "
b1111 #
b1110 "
b1110 #
04
18
05
19
0:
1=
0;
1?
11
00
0'
1&
#715000
b1111 "
b1111 #
14
15
1:
1;
10
1'
#720000
b111 "
b111 #
b11 "
b11 #
b1 "
b1 #
b0 "
b0 #
04
08
0<
0A
05
09
0>
0@
0:
0=
0B
0D
03
0$
0;
0?
0C
02
01
00
0'
0&
0%
#725000
b1 "
b1 #
14
15
1:
1;
10
1'
#730000
b11 "
b11 #
b10 "
b10 #
04
18
05
19
0:
1=
0;
1?
11
00
0'
1&
#735000
b11 "
b11 #
14
15
1:
1;
10
1'
#740000
b111 "
b111 #
b101 "
b101 #
b100 "
b100 #
04
08
1<
05
09
1>
0:
0=
1B
0;
0?
1C
12
01
00
0'
0&
1%
#745000
b101 "
b101 #
14
15
1:
1;
10
1'
#750000
b111 "
b111 #
b110 "
b110 #
04
18
05
19
0:
1=
0;
1?
11
00
0'
1&
#755000
b111 "
b111 #
14
15
1:
1;
10
1'
#760000
b1111 "
b1111 #
b1011 "
b1011 #
b1001 "
b1001 #
b1000 "
b1000 #
04
08
0<
1A
05
09
0>
1@
0:
0=
0B
1D
13
1$
0;
0?
0C
02
01
00
0'
0&
0%
#765000
b1001 "
b1001 #
14
15
1:
1;
10
1'
#770000
b1011 "
b1011 #
b1010 "
b1010 #
04
18
05
19
0:
1=
0;
1?
11
00
0'
1&
#775000
b1011 "
b1011 #
14
15
1:
1;
10
1'
#780000
b1111 "
b1111 #
b1101 "
b1101 #
b1100 "
b1100 #
04
08
1<
05
09
1>
0:
0=
1B
0;
0?
1C
12
01
00
0'
0&
1%
#785000
b1101 "
b1101 #
14
15
1:
1;
10
1'
#790000
b1111 "
b1111 #
b1110 "
b1110 #
04
18
05
19
0:
1=
0;
1?
11
00
0'
1&
#795000
b1111 "
b1111 #
14
15
1:
1;
10
1'
#800000
b111 "
b111 #
b11 "
b11 #
b1 "
b1 #
b0 "
b0 #
04
08
0<
0A
05
09
0>
0@
0:
0=
0B
0D
03
0$
0;
0?
0C
02
01
00
0'
0&
0%
#805000
b1 "
b1 #
14
15
1:
1;
10
1'
#810000
b11 "
b11 #
b10 "
b10 #
04
18
05
19
0:
1=
0;
1?
11
00
0'
1&
#815000
b11 "
b11 #
14
15
1:
1;
10
1'
#820000
b111 "
b111 #
b101 "
b101 #
b100 "
b100 #
04
08
1<
05
09
1>
0:
0=
1B
0;
0?
1C
12
01
00
0'
0&
1%
#825000
b101 "
b101 #
14
15
1:
1;
10
1'
#830000
b111 "
b111 #
b110 "
b110 #
04
18
05
19
0:
1=
0;
1?
11
00
0'
1&
#835000
b111 "
b111 #
14
15
1:
1;
10
1'
#840000
b1111 "
b1111 #
b1011 "
b1011 #
b1001 "
b1001 #
b1000 "
b1000 #
04
08
0<
1A
05
09
0>
1@
0:
0=
0B
1D
13
1$
0;
0?
0C
02
01
00
0'
0&
0%
#845000
b1001 "
b1001 #
14
15
1:
1;
10
1'
#850000
b1011 "
b1011 #
b1010 "
b1010 #
04
18
05
19
0:
1=
0;
1?
11
00
0'
1&
#855000
b1011 "
b1011 #
14
15
1:
1;
10
1'
#860000
b1111 "
b1111 #
b1101 "
b1101 #
b1100 "
b1100 #
04
08
1<
05
09
1>
0:
0=
1B
0;
0?
1C
12
01
00
0'
0&
1%
#865000
b1101 "
b1101 #
14
15
1:
1;
10
1'
#870000
b1111 "
b1111 #
b1110 "
b1110 #
04
18
05
19
0:
1=
0;
1?
11
00
0'
1&
#875000
b1111 "
b1111 #
14
15
1:
1;
10
1'
#880000
b111 "
b111 #
b11 "
b11 #
b1 "
b1 #
b0 "
b0 #
04
08
0<
0A
05
09
0>
0@
0:
0=
0B
0D
03
0$
0;
0?
0C
02
01
00
0'
0&
0%
#885000
b1 "
b1 #
14
15
1:
1;
10
1'
#890000
b11 "
b11 #
b10 "
b10 #
04
18
05
19
0:
1=
0;
1?
11
00
0'
1&
#895000
b11 "
b11 #
14
15
1:
1;
10
1'
#900000
b111 "
b111 #
b101 "
b101 #
b100 "
b100 #
04
08
1<
05
09
1>
0:
0=
1B
0;
0?
1C
12
01
00
0'
0&
1%
#905000
b101 "
b101 #
14
15
1:
1;
10
1'
#910000
b111 "
b111 #
b110 "
b110 #
04
18
05
19
0:
1=
0;
1?
11
00
0'
1&
#915000
b111 "
b111 #
14
15
1:
1;
10
1'
#920000
b1111 "
b1111 #
b1011 "
b1011 #
b1001 "
b1001 #
b1000 "
b1000 #
04
08
0<
1A
05
09
0>
1@
0:
0=
0B
1D
13
1$
0;
0?
0C
02
01
00
0'
0&
0%
#925000
b1001 "
b1001 #
14
15
1:
1;
10
1'
#930000
b1011 "
b1011 #
b1010 "
b1010 #
04
18
05
19
0:
1=
0;
1?
11
00
0'
1&
#935000
b1011 "
b1011 #
14
15
1:
1;
10
1'
#940000
b1111 "
b1111 #
b1101 "
b1101 #
b1100 "
b1100 #
04
08
1<
05
09
1>
0:
0=
1B
0;
0?
1C
12
01
00
0'
0&
1%
#945000
b1101 "
b1101 #
14
15
1:
1;
10
1'
#950000
b1111 "
b1111 #
b1110 "
b1110 #
04
18
05
19
0:
1=
0;
1?
11
00
0'
1&
#955000
b1111 "
b1111 #
14
15
1:
1;
10
1'
#960000
b111 "
b111 #
b11 "
b11 #
b1 "
b1 #
b0 "
b0 #
04
08
0<
0A
05
09
0>
0@
0:
0=
0B
0D
03
0$
0;
0?
0C
02
01
00
0'
0&
0%
#965000
b1 "
b1 #
14
15
1:
1;
10
1'
#970000
b11 "
b11 #
b10 "
b10 #
04
18
05
19
0:
1=
0;
1?
11
00
0'
1&
#975000
b11 "
b11 #
14
15
1:
1;
10
1'
#980000
b111 "
b111 #
b101 "
b101 #
b100 "
b100 #
04
08
1<
05
09
1>
0:
0=
1B
0;
0?
1C
12
01
00
0'
0&
1%
#985000
b101 "
b101 #
14
15
1:
1;
10
1'
#990000
b111 "
b111 #
b110 "
b110 #
04
18
05
19
0:
1=
0;
1?
11
00
0'
1&
#995000
b111 "
b111 #
14
15
1:
1;
10
1'
